# Id,Surface
0,carpet
1,carpet
2,hard_tiles
3,carpet
4,soft_pvc
5,soft_pvc
6,fine_concrete
7,soft_tiles
8,soft_pvc
9,fine_concrete
10,carpet
11,carpet
12,hard_tiles
13,tiled
14,soft_pvc
15,concrete
16,tiled
17,carpet
18,hard_tiles
19,soft_pvc
20,soft_pvc
21,concrete
22,hard_tiles_large_space
23,soft_pvc
24,tiled
25,hard_tiles
26,concrete
27,carpet
28,concrete
29,soft_pvc
30,soft_pvc
31,hard_tiles_large_space
32,hard_tiles
33,soft_tiles
34,hard_tiles_large_space
35,soft_pvc
36,soft_tiles
37,tiled
38,concrete
39,soft_pvc
40,hard_tiles_large_space
41,soft_pvc
42,soft_pvc
43,hard_tiles
44,soft_pvc
45,soft_pvc
46,concrete
47,soft_pvc
48,hard_tiles
49,fine_concrete
50,hard_tiles
51,soft_pvc
52,hard_tiles_large_space
53,soft_pvc
54,soft_pvc
55,tiled
56,carpet
57,concrete
58,tiled
59,carpet
60,tiled
61,concrete
62,soft_pvc
63,hard_tiles_large_space
64,soft_tiles
65,carpet
66,soft_pvc
67,tiled
68,soft_pvc
69,hard_tiles
70,hard_tiles
71,carpet
72,hard_tiles
73,soft_pvc
74,carpet
75,tiled
76,carpet
77,tiled
78,concrete
79,hard_tiles_large_space
80,soft_pvc
81,soft_pvc
82,soft_pvc
83,concrete
84,carpet
85,fine_concrete
86,concrete
87,carpet
88,carpet
89,soft_pvc
90,hard_tiles
91,fine_concrete
92,carpet
93,concrete
94,hard_tiles_large_space
95,tiled
96,fine_concrete
97,concrete
98,soft_pvc
99,concrete
100,tiled
101,soft_tiles
102,hard_tiles
103,soft_pvc
104,hard_tiles
105,soft_pvc
106,soft_pvc
107,hard_tiles
108,concrete
109,tiled
110,soft_pvc
111,soft_pvc
112,carpet
113,soft_pvc
114,soft_pvc
115,tiled
116,carpet
117,hard_tiles
118,hard_tiles_large_space
119,tiled
120,carpet
121,soft_pvc
122,hard_tiles
123,concrete
124,soft_pvc
125,soft_pvc
126,hard_tiles
127,wood
128,soft_pvc
129,soft_pvc
130,hard_tiles_large_space
131,carpet
132,soft_pvc
133,soft_pvc
134,fine_concrete
135,soft_pvc
136,soft_pvc
137,soft_pvc
138,soft_pvc
139,soft_pvc
140,soft_tiles
141,concrete
142,soft_pvc
143,carpet
144,fine_concrete
145,hard_tiles_large_space
146,hard_tiles
147,carpet
148,tiled
149,tiled
150,tiled
151,soft_tiles
152,soft_pvc
153,carpet
154,tiled
155,soft_pvc
156,carpet
157,fine_concrete
158,fine_concrete
159,tiled
160,soft_pvc
161,hard_tiles_large_space
162,soft_tiles
163,concrete
164,carpet
165,concrete
166,soft_pvc
167,soft_pvc
168,carpet
169,soft_pvc
170,soft_pvc
171,soft_pvc
172,soft_pvc
173,carpet
174,hard_tiles
175,carpet
176,soft_pvc
177,concrete
178,carpet
179,hard_tiles_large_space
180,hard_tiles
181,carpet
182,soft_pvc
183,hard_tiles
184,fine_concrete
185,soft_pvc
186,carpet
187,fine_concrete
188,concrete
189,hard_tiles_large_space
190,soft_pvc
191,hard_tiles_large_space
192,soft_pvc
193,soft_pvc
194,concrete
195,soft_tiles
196,concrete
197,tiled
198,soft_pvc
199,tiled
200,concrete
201,soft_pvc
202,soft_pvc
203,carpet
204,hard_tiles
205,soft_pvc
206,soft_pvc
207,hard_tiles
208,hard_tiles
209,hard_tiles_large_space
210,tiled
211,hard_tiles
212,soft_tiles
213,tiled
214,hard_tiles_large_space
215,hard_tiles_large_space
216,carpet
217,hard_tiles
218,tiled
219,soft_pvc
220,tiled
221,hard_tiles
222,fine_concrete
223,hard_tiles_large_space
224,soft_pvc
225,soft_tiles
226,soft_tiles
227,carpet
228,tiled
229,concrete
230,carpet
231,soft_pvc
232,soft_tiles
233,tiled
234,carpet
235,hard_tiles
236,carpet
237,soft_pvc
238,concrete
239,carpet
240,tiled
241,wood
242,hard_tiles
243,hard_tiles
244,hard_tiles
245,hard_tiles
246,soft_pvc
247,concrete
248,soft_pvc
249,soft_pvc
250,soft_pvc
251,soft_pvc
252,carpet
253,soft_tiles
254,hard_tiles_large_space
255,hard_tiles_large_space
256,soft_pvc
257,carpet
258,carpet
259,carpet
260,soft_tiles
261,soft_tiles
262,tiled
263,tiled
264,carpet
265,fine_concrete
266,soft_pvc
267,carpet
268,concrete
269,carpet
270,fine_concrete
271,carpet
272,soft_pvc
273,soft_tiles
274,soft_pvc
275,soft_pvc
276,hard_tiles_large_space
277,tiled
278,soft_pvc
279,concrete
280,soft_pvc
281,carpet
282,concrete
283,carpet
284,fine_concrete
285,carpet
286,soft_tiles
287,soft_pvc
288,hard_tiles
289,concrete
290,hard_tiles_large_space
291,soft_pvc
292,soft_pvc
293,concrete
294,hard_tiles
295,carpet
296,soft_pvc
297,soft_tiles
298,hard_tiles
299,carpet
300,soft_pvc
301,hard_tiles
302,carpet
303,hard_tiles
304,soft_pvc
305,concrete
306,soft_pvc
307,carpet
308,hard_tiles_large_space
309,fine_concrete
310,hard_tiles_large_space
311,carpet
312,hard_tiles
313,carpet
314,soft_pvc
315,soft_pvc
316,soft_pvc
317,fine_concrete
318,carpet
319,hard_tiles
320,hard_tiles
321,hard_tiles
322,soft_tiles
323,carpet
324,soft_pvc
325,soft_pvc
326,hard_tiles_large_space
327,carpet
328,carpet
329,tiled
330,carpet
331,hard_tiles
332,fine_concrete
333,tiled
334,soft_tiles
335,carpet
336,soft_pvc
337,soft_pvc
338,tiled
339,fine_concrete
340,carpet
341,hard_tiles_large_space
342,soft_tiles
343,carpet
344,soft_pvc
345,carpet
346,hard_tiles_large_space
347,concrete
348,soft_pvc
349,carpet
350,carpet
351,soft_pvc
352,hard_tiles
353,soft_tiles
354,soft_pvc
355,hard_tiles
356,hard_tiles
357,soft_pvc
358,hard_tiles_large_space
359,tiled
360,hard_tiles
361,fine_concrete
362,soft_pvc
363,concrete
364,fine_concrete
365,hard_tiles
366,tiled
367,soft_pvc
368,hard_tiles
369,concrete
370,soft_pvc
371,soft_pvc
372,tiled
373,soft_pvc
374,fine_concrete
375,carpet
376,carpet
377,tiled
378,soft_pvc
379,hard_tiles_large_space
380,tiled
381,soft_pvc
382,soft_tiles
383,concrete
384,soft_pvc
385,soft_pvc
386,soft_pvc
387,tiled
388,carpet
389,hard_tiles
390,tiled
391,carpet
392,carpet
393,hard_tiles
394,tiled
395,concrete
396,tiled
397,hard_tiles_large_space
398,concrete
399,soft_pvc
400,carpet
401,soft_pvc
402,soft_pvc
403,tiled
404,hard_tiles
405,concrete
406,soft_pvc
407,hard_tiles_large_space
408,soft_pvc
409,carpet
410,carpet
411,tiled
412,soft_pvc
413,hard_tiles
414,soft_pvc
415,hard_tiles
416,hard_tiles_large_space
417,carpet
418,soft_pvc
419,hard_tiles_large_space
420,soft_pvc
421,tiled
422,soft_tiles
423,concrete
424,hard_tiles_large_space
425,soft_pvc
426,concrete
427,hard_tiles
428,soft_pvc
429,hard_tiles
430,tiled
431,soft_pvc
432,hard_tiles
433,fine_concrete
434,fine_concrete
435,carpet
436,soft_pvc
437,hard_tiles
438,soft_pvc
439,hard_tiles
440,soft_pvc
441,concrete
442,carpet
443,soft_pvc
444,carpet
445,soft_pvc
446,soft_pvc
447,concrete
448,carpet
449,soft_tiles
450,soft_pvc
451,hard_tiles
452,soft_pvc
453,fine_concrete
454,fine_concrete
455,soft_pvc
456,tiled
457,soft_tiles
458,soft_tiles
459,soft_pvc
460,carpet
461,soft_pvc
462,concrete
463,hard_tiles_large_space
464,soft_pvc
465,concrete
466,concrete
467,concrete
468,soft_pvc
469,hard_tiles_large_space
470,soft_pvc
471,tiled
472,hard_tiles
473,soft_pvc
474,fine_concrete
475,concrete
476,hard_tiles
477,carpet
478,concrete
479,soft_pvc
480,hard_tiles
481,concrete
482,soft_pvc
483,carpet
484,soft_tiles
485,soft_pvc
486,soft_pvc
487,soft_pvc
488,soft_pvc
489,soft_pvc
490,soft_pvc
491,soft_tiles
492,concrete
493,soft_pvc
494,carpet
495,hard_tiles_large_space
496,carpet
497,carpet
498,soft_pvc
499,hard_tiles
500,soft_pvc
501,soft_pvc
502,soft_tiles
503,concrete
504,soft_pvc
505,soft_tiles
506,hard_tiles
507,hard_tiles
508,soft_pvc
509,concrete
510,soft_pvc
511,carpet
512,soft_pvc
513,tiled
514,carpet
515,tiled
516,soft_pvc
517,hard_tiles
518,carpet
519,soft_pvc
520,soft_pvc
521,hard_tiles_large_space
522,hard_tiles
523,soft_pvc
524,soft_tiles
525,soft_pvc
526,soft_pvc
527,hard_tiles_large_space
528,concrete
529,concrete
530,carpet
531,fine_concrete
532,soft_pvc
533,carpet
534,carpet
535,carpet
536,carpet
537,soft_pvc
538,hard_tiles
539,hard_tiles_large_space
540,soft_pvc
541,carpet
542,carpet
543,soft_tiles
544,soft_pvc
545,hard_tiles_large_space
546,tiled
547,tiled
548,carpet
549,soft_pvc
550,hard_tiles
551,soft_tiles
552,hard_tiles
553,carpet
554,hard_tiles
555,soft_pvc
556,soft_pvc
557,carpet
558,carpet
559,soft_tiles
560,soft_pvc
561,concrete
562,carpet
563,hard_tiles
564,soft_pvc
565,soft_pvc
566,hard_tiles_large_space
567,hard_tiles
568,hard_tiles_large_space
569,soft_tiles
570,concrete
571,soft_pvc
572,hard_tiles_large_space
573,carpet
574,tiled
575,soft_pvc
576,soft_pvc
577,carpet
578,tiled
579,carpet
580,hard_tiles
581,soft_pvc
582,soft_pvc
583,hard_tiles
584,soft_pvc
585,tiled
586,tiled
587,hard_tiles
588,hard_tiles
589,hard_tiles
590,carpet
591,carpet
592,concrete
593,carpet
594,hard_tiles_large_space
595,fine_concrete
596,hard_tiles
597,tiled
598,soft_pvc
599,soft_pvc
600,soft_pvc
601,soft_pvc
602,concrete
603,soft_tiles
604,soft_pvc
605,soft_pvc
606,soft_pvc
607,hard_tiles
608,carpet
609,soft_tiles
610,hard_tiles
611,tiled
612,soft_pvc
613,soft_pvc
614,soft_pvc
615,soft_pvc
616,soft_pvc
617,soft_pvc
618,concrete
619,hard_tiles_large_space
620,carpet
621,soft_pvc
622,hard_tiles
623,carpet
624,hard_tiles_large_space
625,soft_pvc
626,hard_tiles
627,carpet
628,carpet
629,soft_pvc
630,soft_pvc
631,soft_pvc
632,hard_tiles
633,soft_pvc
634,soft_pvc
635,soft_pvc
636,soft_pvc
637,soft_tiles
638,hard_tiles_large_space
639,hard_tiles
640,soft_pvc
641,concrete
642,soft_tiles
643,soft_pvc
644,hard_tiles
645,concrete
646,soft_pvc
647,hard_tiles
648,carpet
649,carpet
650,hard_tiles
651,carpet
652,concrete
653,fine_concrete
654,soft_tiles
655,carpet
656,soft_pvc
657,tiled
658,carpet
659,fine_concrete
660,hard_tiles
661,concrete
662,carpet
663,fine_concrete
664,concrete
665,hard_tiles
666,soft_tiles
667,concrete
668,soft_pvc
669,carpet
670,carpet
671,soft_pvc
672,soft_pvc
673,soft_tiles
674,carpet
675,fine_concrete
676,carpet
677,soft_tiles
678,soft_pvc
679,soft_pvc
680,soft_pvc
681,soft_pvc
682,soft_pvc
683,soft_pvc
684,concrete
685,concrete
686,soft_pvc
687,fine_concrete
688,soft_pvc
689,carpet
690,soft_pvc
691,hard_tiles
692,soft_pvc
693,carpet
694,hard_tiles
695,hard_tiles
696,soft_pvc
697,carpet
698,hard_tiles
699,soft_pvc
700,carpet
701,carpet
702,hard_tiles
703,carpet
704,soft_tiles
705,soft_pvc
706,carpet
707,hard_tiles
708,carpet
709,hard_tiles
710,carpet
711,fine_concrete
712,carpet
713,carpet
714,tiled
715,tiled
716,tiled
717,concrete
718,hard_tiles
719,soft_pvc
720,fine_concrete
721,hard_tiles_large_space
722,carpet
723,soft_pvc
724,tiled
725,soft_pvc
726,carpet
727,soft_pvc
728,carpet
729,carpet
730,carpet
731,soft_pvc
732,carpet
733,hard_tiles
734,soft_pvc
735,hard_tiles
736,concrete
737,soft_pvc
738,carpet
739,soft_pvc
740,carpet
741,hard_tiles
742,concrete
743,soft_pvc
744,fine_concrete
745,wood
746,hard_tiles
747,soft_pvc
748,carpet
749,hard_tiles
750,carpet
751,soft_pvc
752,soft_pvc
753,hard_tiles
754,soft_pvc
755,carpet
756,soft_tiles
757,soft_pvc
758,carpet
759,soft_pvc
760,hard_tiles
761,soft_pvc
762,hard_tiles
763,tiled
764,soft_pvc
765,soft_pvc
766,soft_pvc
767,concrete
768,soft_pvc
769,soft_pvc
770,soft_pvc
771,soft_pvc
772,carpet
773,hard_tiles
774,carpet
775,hard_tiles_large_space
776,soft_pvc
777,carpet
778,soft_pvc
779,soft_pvc
780,hard_tiles
781,carpet
782,carpet
783,concrete
784,soft_pvc
785,hard_tiles_large_space
786,carpet
787,fine_concrete
788,hard_tiles_large_space
789,hard_tiles
790,carpet
791,fine_concrete
792,hard_tiles
793,soft_pvc
794,hard_tiles
795,soft_pvc
796,soft_pvc
797,soft_pvc
798,concrete
799,hard_tiles
800,soft_tiles
801,carpet
802,concrete
803,hard_tiles
804,soft_pvc
805,concrete
806,concrete
807,soft_pvc
808,soft_pvc
809,carpet
810,soft_pvc
811,concrete
812,fine_concrete
813,hard_tiles
814,soft_pvc
815,carpet
816,soft_pvc
817,soft_pvc
818,carpet
819,hard_tiles
820,hard_tiles_large_space
821,soft_pvc
822,concrete
823,carpet
824,tiled
825,soft_pvc
826,concrete
827,soft_pvc
828,hard_tiles
829,hard_tiles
830,soft_pvc
831,hard_tiles
832,soft_pvc
833,tiled
834,soft_pvc
835,tiled
836,soft_tiles
837,carpet
838,hard_tiles
839,carpet
840,hard_tiles
841,soft_pvc
842,soft_pvc
843,concrete
844,carpet
845,soft_pvc
846,hard_tiles
847,hard_tiles
848,hard_tiles_large_space
849,carpet
850,tiled
851,hard_tiles_large_space
852,carpet
853,carpet
854,soft_pvc
855,hard_tiles
856,carpet
857,carpet
858,soft_pvc
859,concrete
860,tiled
861,concrete
862,carpet
863,soft_pvc
864,hard_tiles_large_space
865,carpet
866,soft_tiles
867,carpet
868,hard_tiles
869,hard_tiles
870,soft_pvc
871,hard_tiles
872,hard_tiles
873,hard_tiles_large_space
874,soft_pvc
875,carpet
876,hard_tiles
877,soft_pvc
878,soft_pvc
879,carpet
880,hard_tiles
881,carpet
882,soft_pvc
883,soft_pvc
884,soft_pvc
885,carpet
886,carpet
887,hard_tiles
888,hard_tiles
889,hard_tiles
890,wood
891,soft_tiles
892,soft_pvc
893,concrete
894,soft_pvc
895,soft_pvc
896,soft_tiles
897,carpet
898,hard_tiles_large_space
899,hard_tiles
900,hard_tiles_large_space
901,soft_pvc
902,concrete
903,soft_tiles
904,soft_pvc
905,soft_tiles
906,carpet
907,soft_pvc
908,hard_tiles_large_space
909,hard_tiles
910,tiled
911,soft_tiles
912,hard_tiles
913,carpet
914,soft_pvc
915,soft_tiles
916,carpet
917,soft_pvc
918,concrete
919,soft_pvc
920,fine_concrete
921,soft_pvc
922,soft_pvc
923,hard_tiles_large_space
924,carpet
925,concrete
926,fine_concrete
927,soft_pvc
928,hard_tiles
929,soft_pvc
930,hard_tiles
931,hard_tiles
932,concrete
933,tiled
934,tiled
935,hard_tiles
936,concrete
937,soft_pvc
938,hard_tiles
939,soft_pvc
940,carpet
941,hard_tiles
942,carpet
943,soft_pvc
944,soft_pvc
945,carpet
946,concrete
947,fine_concrete
948,carpet
949,carpet
950,hard_tiles
951,soft_tiles
952,carpet
953,soft_pvc
954,soft_pvc
955,hard_tiles_large_space
956,concrete
957,carpet
958,soft_pvc
959,soft_pvc
960,tiled
961,concrete
962,concrete
963,carpet
964,hard_tiles
965,soft_pvc
966,hard_tiles
967,carpet
968,soft_pvc
969,concrete
970,carpet
971,hard_tiles
972,soft_tiles
973,carpet
974,carpet
975,soft_pvc
976,soft_tiles
977,soft_pvc
978,soft_pvc
979,hard_tiles_large_space
980,soft_tiles
981,carpet
982,concrete
983,soft_pvc
984,soft_pvc
985,tiled
986,hard_tiles_large_space
987,hard_tiles_large_space
988,hard_tiles_large_space
989,soft_pvc
990,hard_tiles
991,soft_tiles
992,hard_tiles
993,soft_pvc
994,soft_pvc
995,carpet
996,soft_pvc
997,soft_pvc
998,soft_pvc
999,concrete
1000,soft_pvc
1001,carpet
1002,hard_tiles_large_space
1003,hard_tiles
1004,tiled
1005,hard_tiles
1006,soft_pvc
1007,soft_pvc
1008,soft_pvc
1009,tiled
1010,carpet
1011,hard_tiles
1012,soft_pvc
1013,concrete
1014,carpet
1015,concrete
1016,soft_tiles
1017,hard_tiles_large_space
1018,concrete
1019,hard_tiles
1020,carpet
1021,hard_tiles
1022,soft_pvc
1023,carpet
1024,carpet
1025,carpet
1026,soft_pvc
1027,hard_tiles
1028,concrete
1029,soft_pvc
1030,hard_tiles_large_space
1031,hard_tiles
1032,tiled
1033,hard_tiles
1034,carpet
1035,carpet
1036,carpet
1037,hard_tiles
1038,wood
1039,hard_tiles
1040,carpet
1041,hard_tiles
1042,carpet
1043,soft_pvc
1044,soft_pvc
1045,carpet
1046,fine_concrete
1047,carpet
1048,soft_pvc
1049,carpet
1050,soft_pvc
1051,carpet
1052,hard_tiles
1053,fine_concrete
1054,carpet
1055,hard_tiles
1056,soft_pvc
1057,soft_pvc
1058,concrete
1059,hard_tiles
1060,hard_tiles
1061,soft_pvc
1062,soft_pvc
1063,hard_tiles
1064,soft_pvc
1065,soft_pvc
1066,hard_tiles
1067,soft_pvc
1068,hard_tiles_large_space
1069,soft_pvc
1070,soft_pvc
1071,soft_pvc
1072,tiled
1073,concrete
1074,soft_pvc
1075,carpet
1076,soft_pvc
1077,hard_tiles
1078,tiled
1079,soft_pvc
1080,concrete
1081,hard_tiles
1082,fine_concrete
1083,tiled
1084,hard_tiles
1085,hard_tiles
1086,hard_tiles
1087,soft_pvc
1088,soft_pvc
1089,carpet
1090,concrete
1091,soft_pvc
1092,soft_pvc
1093,carpet
1094,soft_pvc
1095,tiled
1096,soft_pvc
1097,soft_pvc
1098,carpet
1099,concrete
1100,soft_pvc
1101,soft_pvc
1102,carpet
1103,soft_pvc
1104,hard_tiles_large_space
1105,tiled
1106,soft_pvc
1107,hard_tiles_large_space
1108,carpet
1109,hard_tiles
1110,tiled
1111,hard_tiles
1112,tiled
1113,carpet
1114,soft_tiles
1115,soft_pvc
1116,concrete
1117,tiled
1118,soft_pvc
1119,carpet
1120,carpet
1121,hard_tiles_large_space
1122,tiled
1123,concrete
1124,fine_concrete
1125,soft_pvc
1126,soft_pvc
1127,fine_concrete
1128,soft_pvc
1129,hard_tiles
1130,carpet
1131,carpet
1132,soft_pvc
1133,soft_pvc
1134,carpet
1135,carpet
1136,concrete
1137,tiled
1138,concrete
1139,soft_pvc
1140,tiled
1141,hard_tiles
1142,fine_concrete
1143,soft_pvc
1144,soft_pvc
1145,hard_tiles
1146,carpet
1147,concrete
1148,hard_tiles
1149,soft_pvc
1150,tiled
1151,hard_tiles_large_space
1152,concrete
1153,concrete
1154,hard_tiles
1155,concrete
1156,concrete
1157,soft_pvc
1158,fine_concrete
1159,soft_pvc
1160,soft_tiles
1161,soft_pvc
1162,soft_pvc
1163,soft_pvc
1164,soft_pvc
1165,concrete
1166,soft_pvc
1167,fine_concrete
1168,carpet
1169,carpet
1170,soft_tiles
1171,hard_tiles
1172,soft_tiles
1173,hard_tiles
1174,carpet
1175,hard_tiles_large_space
1176,hard_tiles
1177,tiled
1178,soft_pvc
1179,hard_tiles
1180,hard_tiles
1181,hard_tiles
1182,tiled
1183,hard_tiles
1184,soft_pvc
1185,carpet
1186,carpet
1187,soft_tiles
1188,soft_pvc
1189,tiled
1190,fine_concrete
1191,tiled
1192,soft_pvc
1193,carpet
1194,carpet
1195,soft_tiles
1196,soft_pvc
1197,hard_tiles
1198,hard_tiles_large_space
1199,tiled
1200,concrete
1201,soft_pvc
1202,soft_pvc
1203,soft_pvc
1204,hard_tiles
1205,soft_pvc
1206,hard_tiles_large_space
1207,concrete
1208,hard_tiles_large_space
1209,carpet
1210,soft_pvc
1211,hard_tiles_large_space
1212,soft_pvc
1213,hard_tiles_large_space
1214,soft_pvc
1215,soft_pvc
1216,hard_tiles
1217,soft_pvc
1218,carpet
1219,concrete
1220,tiled
1221,hard_tiles
1222,fine_concrete
1223,soft_pvc
1224,tiled
1225,soft_pvc
1226,concrete
1227,tiled
1228,carpet
1229,soft_pvc
1230,concrete
1231,hard_tiles_large_space
1232,carpet
1233,concrete
1234,soft_tiles
1235,soft_pvc
1236,carpet
1237,concrete
1238,soft_pvc
1239,soft_pvc
1240,soft_pvc
1241,tiled
1242,carpet
1243,concrete
1244,hard_tiles
1245,soft_pvc
1246,tiled
1247,hard_tiles_large_space
1248,concrete
1249,soft_pvc
1250,carpet
1251,hard_tiles
1252,carpet
1253,tiled
1254,soft_pvc
1255,hard_tiles
1256,hard_tiles_large_space
1257,soft_pvc
1258,soft_pvc
1259,hard_tiles_large_space
1260,soft_pvc
1261,carpet
1262,carpet
1263,soft_pvc
1264,hard_tiles_large_space
1265,concrete
1266,soft_pvc
1267,hard_tiles
1268,carpet
1269,soft_pvc
1270,soft_pvc
1271,concrete
1272,soft_pvc
1273,fine_concrete
1274,soft_pvc
1275,soft_pvc
1276,soft_pvc
1277,soft_pvc
1278,concrete
1279,hard_tiles
1280,soft_pvc
1281,soft_pvc
1282,carpet
1283,concrete
1284,fine_concrete
1285,hard_tiles
1286,hard_tiles
1287,carpet
1288,soft_pvc
1289,soft_pvc
1290,soft_pvc
1291,fine_concrete
1292,carpet
1293,hard_tiles
1294,soft_pvc
1295,carpet
1296,soft_pvc
1297,hard_tiles
1298,soft_pvc
1299,carpet
1300,carpet
1301,soft_tiles
1302,carpet
1303,soft_pvc
1304,carpet
1305,tiled
1306,carpet
1307,concrete
1308,soft_pvc
1309,hard_tiles
1310,fine_concrete
1311,carpet
1312,concrete
1313,hard_tiles
1314,concrete
1315,soft_pvc
1316,soft_pvc
1317,tiled
1318,tiled
1319,soft_pvc
1320,fine_concrete
1321,soft_pvc
1322,hard_tiles
1323,concrete
1324,soft_pvc
1325,soft_pvc
1326,tiled
1327,soft_pvc
1328,soft_pvc
1329,hard_tiles
1330,soft_pvc
1331,hard_tiles
1332,soft_pvc
1333,soft_pvc
1334,soft_pvc
1335,soft_pvc
1336,carpet
1337,soft_pvc
1338,soft_pvc
1339,soft_pvc
1340,soft_pvc
1341,hard_tiles
1342,hard_tiles
1343,soft_pvc
1344,soft_pvc
1345,soft_pvc
1346,carpet
1347,carpet
1348,hard_tiles
1349,hard_tiles_large_space
1350,concrete
1351,tiled
1352,soft_pvc
1353,soft_pvc
1354,soft_pvc
1355,concrete
1356,soft_pvc
1357,soft_pvc
1358,soft_tiles
1359,hard_tiles
1360,soft_pvc
1361,fine_concrete
1362,carpet
1363,carpet
1364,soft_pvc
1365,hard_tiles_large_space
1366,concrete
1367,soft_pvc
1368,soft_tiles
1369,hard_tiles
1370,carpet
1371,hard_tiles_large_space
1372,hard_tiles_large_space
1373,carpet
1374,hard_tiles
1375,hard_tiles
1376,soft_pvc
1377,soft_pvc
1378,hard_tiles_large_space
1379,hard_tiles
1380,soft_pvc
1381,soft_pvc
1382,hard_tiles_large_space
1383,carpet
1384,soft_tiles
1385,carpet
1386,carpet
1387,hard_tiles
1388,fine_concrete
1389,soft_pvc
1390,carpet
1391,soft_pvc
1392,hard_tiles
1393,soft_pvc
1394,hard_tiles_large_space
1395,carpet
1396,hard_tiles
1397,hard_tiles
1398,carpet
1399,soft_tiles
1400,soft_pvc
1401,soft_pvc
1402,hard_tiles
1403,fine_concrete
1404,soft_pvc
1405,fine_concrete
1406,tiled
1407,hard_tiles
1408,carpet
1409,hard_tiles
1410,soft_pvc
1411,concrete
1412,soft_pvc
1413,carpet
1414,carpet
1415,fine_concrete
1416,soft_pvc
1417,soft_pvc
1418,soft_pvc
1419,soft_pvc
1420,soft_pvc
1421,soft_pvc
1422,carpet
1423,soft_pvc
1424,soft_pvc
1425,soft_pvc
1426,carpet
1427,hard_tiles_large_space
1428,carpet
1429,carpet
1430,hard_tiles
1431,hard_tiles_large_space
1432,soft_pvc
1433,carpet
1434,carpet
1435,carpet
1436,soft_tiles
1437,soft_tiles
1438,hard_tiles
1439,tiled
1440,carpet
1441,soft_pvc
1442,soft_tiles
1443,soft_pvc
1444,soft_pvc
1445,soft_pvc
1446,soft_pvc
1447,carpet
1448,carpet
1449,hard_tiles
1450,hard_tiles
1451,soft_pvc
1452,soft_pvc
1453,carpet
1454,tiled
1455,soft_pvc
1456,soft_pvc
1457,concrete
1458,hard_tiles
1459,soft_pvc
1460,soft_tiles
1461,carpet
1462,soft_pvc
1463,hard_tiles
1464,hard_tiles
1465,carpet
1466,hard_tiles
1467,soft_pvc
1468,carpet
1469,soft_pvc
1470,hard_tiles
1471,tiled
1472,soft_pvc
1473,tiled
1474,soft_pvc
1475,tiled
1476,carpet
1477,concrete
1478,carpet
1479,tiled
1480,carpet
1481,tiled
1482,soft_pvc
1483,hard_tiles_large_space
1484,tiled
1485,concrete
1486,hard_tiles
1487,soft_pvc
1488,soft_pvc
1489,carpet
1490,carpet
1491,hard_tiles
1492,carpet
1493,soft_pvc
1494,hard_tiles_large_space
1495,concrete
1496,soft_pvc
1497,carpet
1498,hard_tiles
1499,hard_tiles
1500,hard_tiles_large_space
1501,soft_pvc
1502,soft_pvc
1503,hard_tiles
1504,carpet
1505,hard_tiles
1506,soft_pvc
1507,hard_tiles
1508,hard_tiles
1509,concrete
1510,carpet
1511,soft_pvc
1512,concrete
1513,soft_pvc
1514,soft_pvc
1515,soft_pvc
1516,carpet
1517,hard_tiles
1518,hard_tiles
1519,soft_pvc
1520,soft_pvc
1521,soft_pvc
1522,hard_tiles
1523,hard_tiles
1524,soft_pvc
1525,hard_tiles
1526,soft_pvc
1527,soft_pvc
1528,soft_pvc
1529,soft_pvc
1530,hard_tiles
1531,soft_pvc
1532,hard_tiles_large_space
1533,concrete
1534,soft_pvc
1535,carpet
1536,concrete
1537,soft_pvc
1538,soft_pvc
1539,soft_pvc
1540,carpet
1541,hard_tiles
1542,soft_pvc
1543,soft_pvc
1544,soft_tiles
1545,carpet
1546,tiled
1547,soft_pvc
1548,soft_pvc
1549,hard_tiles_large_space
1550,carpet
1551,carpet
1552,fine_concrete
1553,hard_tiles
1554,soft_pvc
1555,hard_tiles
1556,carpet
1557,wood
1558,fine_concrete
1559,soft_pvc
1560,hard_tiles
1561,soft_pvc
1562,soft_pvc
1563,soft_pvc
1564,carpet
1565,carpet
1566,carpet
1567,soft_pvc
1568,hard_tiles
1569,concrete
1570,fine_concrete
1571,hard_tiles
1572,concrete
1573,hard_tiles
1574,soft_pvc
1575,hard_tiles
1576,fine_concrete
1577,hard_tiles
1578,carpet
1579,soft_pvc
1580,carpet
1581,soft_pvc
1582,soft_pvc
1583,soft_tiles
1584,carpet
1585,fine_concrete
1586,tiled
1587,soft_tiles
1588,carpet
1589,soft_tiles
1590,soft_pvc
1591,carpet
1592,carpet
1593,carpet
1594,soft_pvc
1595,soft_pvc
1596,carpet
1597,soft_tiles
1598,tiled
1599,hard_tiles
1600,carpet
1601,hard_tiles
1602,carpet
1603,carpet
1604,soft_pvc
1605,soft_pvc
1606,soft_pvc
1607,carpet
1608,soft_tiles
1609,hard_tiles
1610,soft_pvc
1611,soft_pvc
1612,carpet
1613,hard_tiles
1614,carpet
1615,concrete
1616,tiled
1617,hard_tiles
1618,hard_tiles
1619,hard_tiles
1620,concrete
1621,concrete
1622,soft_tiles
1623,soft_pvc
1624,soft_pvc
1625,carpet
1626,soft_pvc
1627,hard_tiles_large_space
1628,carpet
1629,concrete
1630,soft_pvc
1631,soft_pvc
1632,hard_tiles
1633,soft_pvc
1634,hard_tiles
1635,hard_tiles
1636,hard_tiles_large_space
1637,soft_pvc
1638,soft_pvc
1639,soft_pvc
1640,hard_tiles
1641,soft_pvc
1642,soft_pvc
1643,concrete
1644,tiled
1645,carpet
1646,hard_tiles
1647,hard_tiles
1648,soft_pvc
1649,concrete
1650,tiled
1651,carpet
1652,soft_pvc
1653,soft_pvc
1654,tiled
1655,hard_tiles
1656,hard_tiles_large_space
1657,soft_pvc
1658,soft_pvc
1659,tiled
1660,hard_tiles
1661,carpet
1662,soft_pvc
1663,tiled
1664,soft_pvc
1665,soft_pvc
1666,hard_tiles
1667,carpet
1668,soft_pvc
1669,soft_pvc
1670,carpet
1671,soft_pvc
1672,hard_tiles_large_space
1673,soft_pvc
1674,carpet
1675,hard_tiles_large_space
1676,soft_pvc
1677,fine_concrete
1678,soft_pvc
1679,soft_pvc
1680,hard_tiles
1681,concrete
1682,carpet
1683,carpet
1684,concrete
1685,concrete
1686,tiled
1687,soft_pvc
1688,tiled
1689,soft_pvc
1690,carpet
1691,hard_tiles
1692,hard_tiles
1693,fine_concrete
1694,hard_tiles
1695,carpet
1696,tiled
1697,hard_tiles
1698,hard_tiles_large_space
1699,hard_tiles_large_space
1700,hard_tiles_large_space
1701,carpet
1702,soft_pvc
1703,soft_pvc
1704,carpet
